[
  {
    "_id": { "$oid": "580100f4da893943d393e101" },
    "firstname": "Juan",
    "lastname": "Morales",
    "email": "juank.memphis@gmail.com",
    "password": "$2a$04$NJV8nsq4Gx05W3mHFCruCOKlYFItpFEpMkIf8RttqjVWHf3rEyHKK",
    "roles": [{ "$oid": "580100f4da893943d393e909" }]
  },
  {
    "_id": { "$oid": "580100f4da893943d393e102" },
    "firstname": "Sandra",
    "lastname": "Aguilar",
    "email": "sandra.aguilar@gmail.com",
    "password": "$2a$04$NJV8nsq4Gx05W3mHFCruCOKlYFItpFEpMkIf8RttqjVWHf3rEyHKK",
    "roles": [{ "$oid": "580100f4da893943d393e909" }]
  },
  {
    "_id": { "$oid": "580100f4da893943d393e103" },
    "firstname": "Jonathan",
    "lastname": "Quiros",
    "email": "gan@gmail.com",
    "password": "$2a$04$NJV8nsq4Gx05W3mHFCruCOKlYFItpFEpMkIf8RttqjVWHf3rEyHKK",
    "roles": [{ "$oid": "580100f4da893943d393e909" }]
  },
  {
    "_id": { "$oid": "580100f4da893943d393e104" },
    "firstname": "Alejandra",
    "lastname": "Morales",
    "email": "ale@gmail.com",
    "password": "$2a$04$NJV8nsq4Gx05W3mHFCruCOKlYFItpFEpMkIf8RttqjVWHf3rEyHKK",
    "roles": [{ "$oid": "580100f4da893943d393e909" }]
  },
  {
    "_id": { "$oid": "580100f4da893943d393e105" },
    "firstname": "Viviana",
    "lastname": "Morales",
    "email": "vivi@gmail.com",
    "password": "$2a$04$NJV8nsq4Gx05W3mHFCruCOKlYFItpFEpMkIf8RttqjVWHf3rEyHKK",
    "roles": [{ "$oid": "580100f4da893943d393e909" }]
  },
  {
    "_id": { "$oid": "580100f4da893943d393e106" },
    "firstname": "Marylin",
    "lastname": "Morales",
    "email": "mary@gmail.com",
    "password": "$2a$04$NJV8nsq4Gx05W3mHFCruCOKlYFItpFEpMkIf8RttqjVWHf3rEyHKK",
    "roles": [{ "$oid": "580100f4da893943d393e909" }]
  },
  {
    "_id": { "$oid": "580100f4da893943d393e107" },
    "firstname": "Anael",
    "lastname": "Morales",
    "email": "anael@gmail.com",
    "password": "$2a$04$NJV8nsq4Gx05W3mHFCruCOKlYFItpFEpMkIf8RttqjVWHf3rEyHKK",
    "roles": [{ "$oid": "580100f4da893943d393e909" }]
  },
  {
    "_id": { "$oid": "580100f4da893943d393e108" },
    "firstname": "Maria",
    "lastname": "Mora",
    "email": "maria@gmail.com",
    "password": "$2a$04$NJV8nsq4Gx05W3mHFCruCOKlYFItpFEpMkIf8RttqjVWHf3rEyHKK",
    "roles": [{ "$oid": "580100f4da893943d393e909" }]
  },
  {
    "_id": { "$oid": "580100f4da893943d393e109" },
    "firstname": "Mauricio",
    "lastname": "Pacheco",
    "email": "mau@gmail.com",
    "password": "$2a$04$NJV8nsq4Gx05W3mHFCruCOKlYFItpFEpMkIf8RttqjVWHf3rEyHKK",
    "roles": [{ "$oid": "580100f4da893943d393e909" }]
  },
  {
    "_id": { "$oid": "580100f4da893943d393e110" },
    "firstname": "Gustavo",
    "lastname": "Pacheco",
    "email": "tavo@gmail.com",
    "password": "$2a$04$NJV8nsq4Gx05W3mHFCruCOKlYFItpFEpMkIf8RttqjVWHf3rEyHKK",
    "roles": [{ "$oid": "580100f4da893943d393e909" }]
  },
  {
    "_id": { "$oid": "580100f4da893943d393e111" },
    "firstname": "Veronica",
    "lastname": "Pacheco",
    "email": "vero@gmail.com",
    "password": "$2a$04$NJV8nsq4Gx05W3mHFCruCOKlYFItpFEpMkIf8RttqjVWHf3rEyHKK",
    "roles": [{ "$oid": "580100f4da893943d393e909" }]
  },
  {
    "_id": { "$oid": "580100f4da893943d393e112" },
    "firstname": "Adam",
    "lastname": "Gladstone",
    "email": "adam@gmail.com",
    "password": "$2a$04$NJV8nsq4Gx05W3mHFCruCOKlYFItpFEpMkIf8RttqjVWHf3rEyHKK",
    "roles": [{ "$oid": "580100f4da893943d393e909" }]
  },
  {
    "_id": { "$oid": "580100f4da893943d393e113" },
    "firstname": "Pepe",
    "lastname": "Aguilar",
    "email": "pepe@gmail.com",
    "password": "$2a$04$NJV8nsq4Gx05W3mHFCruCOKlYFItpFEpMkIf8RttqjVWHf3rEyHKK",
    "roles": [{ "$oid": "580100f4da893943d393e909" }]
  },
  {
    "_id": { "$oid": "580100f4da893943d393e114" },
    "firstname": "Misha",
    "lastname": "Morales",
    "email": "misha@gmail.com",
    "password": "$2a$04$NJV8nsq4Gx05W3mHFCruCOKlYFItpFEpMkIf8RttqjVWHf3rEyHKK",
    "roles": [{ "$oid": "580100f4da893943d393e909" }]
  },
  {
    "_id": { "$oid": "580100f4da893943d393e115" },
    "firstname": "Botas",
    "lastname": "Aguilar",
    "email": "botas@gmail.com",
    "password": "$2a$04$NJV8nsq4Gx05W3mHFCruCOKlYFItpFEpMkIf8RttqjVWHf3rEyHKK",
    "roles": [{ "$oid": "580100f4da893943d393e909" }]
  },
  {
    "_id": { "$oid": "580100f4da893943d393e116" },
    "firstname": "Paco",
    "lastname": "Morales",
    "email": "paco@gmail.com",
    "password": "$2a$04$NJV8nsq4Gx05W3mHFCruCOKlYFItpFEpMkIf8RttqjVWHf3rEyHKK",
    "roles": [{ "$oid": "580100f4da893943d393e909" }]
  },
  {
    "_id": { "$oid": "580100f4da893943d393e117" },
    "firstname": "Lobo",
    "lastname": "Morales",
    "email": "lobo@gmail.com",
    "password": "$2a$04$NJV8nsq4Gx05W3mHFCruCOKlYFItpFEpMkIf8RttqjVWHf3rEyHKK",
    "roles": [{ "$oid": "580100f4da893943d393e909" }]
  },
  {
    "_id": { "$oid": "580100f4da893943d393e118" },
    "firstname": "Iris",
    "lastname": "Morales",
    "email": "iris@gmail.com",
    "password": "$2a$04$NJV8nsq4Gx05W3mHFCruCOKlYFItpFEpMkIf8RttqjVWHf3rEyHKK",
    "roles": [{ "$oid": "580100f4da893943d393e909" }]
  },
  {
    "_id": { "$oid": "580100f4da893943d393e119" },
    "firstname": "Tara",
    "lastname": "Quiros",
    "email": "tara@gmail.com",
    "password": "$2a$04$NJV8nsq4Gx05W3mHFCruCOKlYFItpFEpMkIf8RttqjVWHf3rEyHKK",
    "roles": [{ "$oid": "580100f4da893943d393e909" }]
  },
  {
    "_id": { "$oid": "580100f4da893943d393e120" },
    "firstname": "Rambo",
    "lastname": "Mora",
    "email": "rambo@gmail.com",
    "password": "$2a$04$NJV8nsq4Gx05W3mHFCruCOKlYFItpFEpMkIf8RttqjVWHf3rEyHKK",
    "roles": [{ "$oid": "580100f4da893943d393e909" }]
  },
  {
    "_id": { "$oid": "580100f4da893943d393e121" },
    "firstname": "Ore",
    "lastname": "Aguilar",
    "email": "ore@gmail.com",
    "password": "$2a$04$NJV8nsq4Gx05W3mHFCruCOKlYFItpFEpMkIf8RttqjVWHf3rEyHKK",
    "roles": [{ "$oid": "580100f4da893943d393e909" }]
  }
]
