[
  {
    "user": { "$oid": "580100f4da893943d393e103" },
    "movie": { "$oid": "580100f4da893943d393e201" },
    "saved": false,
    "rating": 7
  },
  {
    "user": { "$oid": "580100f4da893943d393e103" },
    "movie": { "$oid": "580100f4da893943d393e202" },
    "saved": false,
    "rating": 7.5
  },
  {
    "user": { "$oid": "580100f4da893943d393e103" },
    "movie": { "$oid": "580100f4da893943d393e203" },
    "saved": false,
    "rating": 8
  },
  {
    "user": { "$oid": "580100f4da893943d393e103" },
    "movie": { "$oid": "580100f4da893943d393e204" },
    "saved": false,
    "rating": 8.5
  },
  {
    "user": { "$oid": "580100f4da893943d393e103" },
    "movie": { "$oid": "580100f4da893943d393e205" },
    "saved": false,
    "rating": 9
  },
  {
    "user": { "$oid": "580100f4da893943d393e103" },
    "movie": { "$oid": "580100f4da893943d393e206" },
    "saved": false,
    "rating": 9.5
  },
  {
    "user": { "$oid": "580100f4da893943d393e103" },
    "movie": { "$oid": "580100f4da893943d393e207" },
    "saved": false,
    "rating": 10
  },
  {
    "user": { "$oid": "580100f4da893943d393e103" },
    "movie": { "$oid": "580100f4da893943d393e208" },
    "saved": false,
    "rating": 9.5
  },
  {
    "user": { "$oid": "580100f4da893943d393e103" },
    "movie": { "$oid": "580100f4da893943d393e209" },
    "saved": false,
    "rating": 9
  },
  {
    "user": { "$oid": "580100f4da893943d393e103" },
    "movie": { "$oid": "580100f4da893943d393e210" },
    "saved": false,
    "rating": 8.5
  },
  {
    "user": { "$oid": "580100f4da893943d393e104" },
    "movie": { "$oid": "580100f4da893943d393e211" },
    "saved": false,
    "rating": 8
  },
  {
    "user": { "$oid": "580100f4da893943d393e104" },
    "movie": { "$oid": "580100f4da893943d393e212" },
    "saved": false,
    "rating": 7.5
  },
  {
    "user": { "$oid": "580100f4da893943d393e104" },
    "movie": { "$oid": "580100f4da893943d393e213" },
    "saved": false,
    "rating": 7
  },
  {
    "user": { "$oid": "580100f4da893943d393e104" },
    "movie": { "$oid": "580100f4da893943d393e214" },
    "saved": false,
    "rating": 7.5
  },
  {
    "user": { "$oid": "580100f4da893943d393e104" },
    "movie": { "$oid": "580100f4da893943d393e215" },
    "saved": false,
    "rating": 8
  },
  {
    "user": { "$oid": "580100f4da893943d393e104" },
    "movie": { "$oid": "580100f4da893943d393e216" },
    "saved": false,
    "rating": 8.5
  },
  {
    "user": { "$oid": "580100f4da893943d393e104" },
    "movie": { "$oid": "580100f4da893943d393e217" },
    "saved": false,
    "rating": 9
  },
  {
    "user": { "$oid": "580100f4da893943d393e104" },
    "movie": { "$oid": "580100f4da893943d393e218" },
    "saved": false,
    "rating": 9.5
  },
  {
    "user": { "$oid": "580100f4da893943d393e104" },
    "movie": { "$oid": "580100f4da893943d393e219" },
    "saved": false,
    "rating": 10
  },
  {
    "user": { "$oid": "580100f4da893943d393e104" },
    "movie": { "$oid": "580100f4da893943d393e220" },
    "saved": false,
    "rating": 9.5
  },
  {
    "user": { "$oid": "580100f4da893943d393e105" },
    "movie": { "$oid": "580100f4da893943d393e221" },
    "saved": false,
    "rating": 9
  },
  {
    "user": { "$oid": "580100f4da893943d393e105" },
    "movie": { "$oid": "580100f4da893943d393e222" },
    "saved": false,
    "rating": 8.5
  },
  {
    "user": { "$oid": "580100f4da893943d393e105" },
    "movie": { "$oid": "580100f4da893943d393e223" },
    "saved": false,
    "rating": 8
  },
  {
    "user": { "$oid": "580100f4da893943d393e105" },
    "movie": { "$oid": "580100f4da893943d393e225" },
    "saved": false,
    "rating": 7.5
  },
  {
    "user": { "$oid": "580100f4da893943d393e105" },
    "movie": { "$oid": "580100f4da893943d393e227" },
    "saved": false,
    "rating": 7
  },
  {
    "user": { "$oid": "580100f4da893943d393e105" },
    "movie": { "$oid": "580100f4da893943d393e228" },
    "saved": false,
    "rating": 7.5
  },
  {
    "user": { "$oid": "580100f4da893943d393e105" },
    "movie": { "$oid": "580100f4da893943d393e229" },
    "saved": false,
    "rating": 8
  },
  {
    "user": { "$oid": "580100f4da893943d393e105" },
    "movie": { "$oid": "580100f4da893943d393e230" },
    "saved": false,
    "rating": 8.5
  },
  {
    "user": { "$oid": "580100f4da893943d393e105" },
    "movie": { "$oid": "580100f4da893943d393e231" },
    "saved": false,
    "rating": 9
  },
  {
    "user": { "$oid": "580100f4da893943d393e105" },
    "movie": { "$oid": "580100f4da893943d393e232" },
    "saved": false,
    "rating": 9.5
  },
  {
    "user": { "$oid": "580100f4da893943d393e106" },
    "movie": { "$oid": "580100f4da893943d393e233" },
    "saved": false,
    "rating": 10
  },
  {
    "user": { "$oid": "580100f4da893943d393e106" },
    "movie": { "$oid": "580100f4da893943d393e234" },
    "saved": false,
    "rating": 9.5
  },
  {
    "user": { "$oid": "580100f4da893943d393e106" },
    "movie": { "$oid": "580100f4da893943d393e235" },
    "saved": false,
    "rating": 9
  },
  {
    "user": { "$oid": "580100f4da893943d393e106" },
    "movie": { "$oid": "580100f4da893943d393e236" },
    "saved": false,
    "rating": 8.5
  },
  {
    "user": { "$oid": "580100f4da893943d393e106" },
    "movie": { "$oid": "580100f4da893943d393e237" },
    "saved": false,
    "rating": 8
  },
  {
    "user": { "$oid": "580100f4da893943d393e106" },
    "movie": { "$oid": "580100f4da893943d393e238" },
    "saved": false,
    "rating": 7.5
  },
  {
    "user": { "$oid": "580100f4da893943d393e106" },
    "movie": { "$oid": "580100f4da893943d393e241" },
    "saved": false,
    "rating": 7
  },
  {
    "user": { "$oid": "580100f4da893943d393e106" },
    "movie": { "$oid": "580100f4da893943d393e242" },
    "saved": false,
    "rating": 7.5
  },
  {
    "user": { "$oid": "580100f4da893943d393e106" },
    "movie": { "$oid": "580100f4da893943d393e243" },
    "saved": false,
    "rating": 8
  },
  {
    "user": { "$oid": "580100f4da893943d393e106" },
    "movie": { "$oid": "580100f4da893943d393e244" },
    "saved": false,
    "rating": 8.5
  },
  {
    "user": { "$oid": "580100f4da893943d393e107" },
    "movie": { "$oid": "580100f4da893943d393e245" },
    "saved": false,
    "rating": 9
  },
  {
    "user": { "$oid": "580100f4da893943d393e107" },
    "movie": { "$oid": "580100f4da893943d393e246" },
    "saved": false,
    "rating": 9.5
  },
  {
    "user": { "$oid": "580100f4da893943d393e107" },
    "movie": { "$oid": "580100f4da893943d393e247" },
    "saved": false,
    "rating": 10
  },
  {
    "user": { "$oid": "580100f4da893943d393e107" },
    "movie": { "$oid": "580100f4da893943d393e248" },
    "saved": false,
    "rating": 9.5
  },
  {
    "user": { "$oid": "580100f4da893943d393e107" },
    "movie": { "$oid": "580100f4da893943d393e249" },
    "saved": false,
    "rating": 9
  },
  {
    "user": { "$oid": "580100f4da893943d393e107" },
    "movie": { "$oid": "580100f4da893943d393e250" },
    "saved": false,
    "rating": 8.5
  },
  {
    "user": { "$oid": "580100f4da893943d393e107" },
    "movie": { "$oid": "580100f4da893943d393e251" },
    "saved": false,
    "rating": 8
  },
  {
    "user": { "$oid": "580100f4da893943d393e107" },
    "movie": { "$oid": "580100f4da893943d393e201" },
    "saved": false,
    "rating": 7.5
  },
  {
    "user": { "$oid": "580100f4da893943d393e107" },
    "movie": { "$oid": "580100f4da893943d393e202" },
    "saved": false,
    "rating": 7
  },
  {
    "user": { "$oid": "580100f4da893943d393e107" },
    "movie": { "$oid": "580100f4da893943d393e203" },
    "saved": false,
    "rating": 7.5
  },
  {
    "user": { "$oid": "580100f4da893943d393e108" },
    "movie": { "$oid": "580100f4da893943d393e204" },
    "saved": false,
    "rating": 8
  },
  {
    "user": { "$oid": "580100f4da893943d393e108" },
    "movie": { "$oid": "580100f4da893943d393e205" },
    "saved": false,
    "rating": 8.5
  },
  {
    "user": { "$oid": "580100f4da893943d393e108" },
    "movie": { "$oid": "580100f4da893943d393e206" },
    "saved": false,
    "rating": 9
  },
  {
    "user": { "$oid": "580100f4da893943d393e108" },
    "movie": { "$oid": "580100f4da893943d393e207" },
    "saved": false,
    "rating": 9.5
  },
  {
    "user": { "$oid": "580100f4da893943d393e108" },
    "movie": { "$oid": "580100f4da893943d393e208" },
    "saved": false,
    "rating": 10
  },
  {
    "user": { "$oid": "580100f4da893943d393e108" },
    "movie": { "$oid": "580100f4da893943d393e209" },
    "saved": false,
    "rating": 9.5
  },
  {
    "user": { "$oid": "580100f4da893943d393e108" },
    "movie": { "$oid": "580100f4da893943d393e210" },
    "saved": false,
    "rating": 9
  },
  {
    "user": { "$oid": "580100f4da893943d393e108" },
    "movie": { "$oid": "580100f4da893943d393e211" },
    "saved": false,
    "rating": 8.5
  },
  {
    "user": { "$oid": "580100f4da893943d393e108" },
    "movie": { "$oid": "580100f4da893943d393e212" },
    "saved": false,
    "rating": 8
  },
  {
    "user": { "$oid": "580100f4da893943d393e108" },
    "movie": { "$oid": "580100f4da893943d393e213" },
    "saved": false,
    "rating": 7.5
  },
  {
    "user": { "$oid": "580100f4da893943d393e109" },
    "movie": { "$oid": "580100f4da893943d393e214" },
    "saved": false,
    "rating": 7
  },
  {
    "user": { "$oid": "580100f4da893943d393e109" },
    "movie": { "$oid": "580100f4da893943d393e215" },
    "saved": false,
    "rating": 7.5
  },
  {
    "user": { "$oid": "580100f4da893943d393e109" },
    "movie": { "$oid": "580100f4da893943d393e216" },
    "saved": false,
    "rating": 8
  },
  {
    "user": { "$oid": "580100f4da893943d393e109" },
    "movie": { "$oid": "580100f4da893943d393e217" },
    "saved": false,
    "rating": 8.5
  },
  {
    "user": { "$oid": "580100f4da893943d393e109" },
    "movie": { "$oid": "580100f4da893943d393e218" },
    "saved": false,
    "rating": 9
  },
  {
    "user": { "$oid": "580100f4da893943d393e109" },
    "movie": { "$oid": "580100f4da893943d393e219" },
    "saved": false,
    "rating": 9.5
  },
  {
    "user": { "$oid": "580100f4da893943d393e109" },
    "movie": { "$oid": "580100f4da893943d393e220" },
    "saved": false,
    "rating": 10
  },
  {
    "user": { "$oid": "580100f4da893943d393e109" },
    "movie": { "$oid": "580100f4da893943d393e221" },
    "saved": false,
    "rating": 9.5
  },
  {
    "user": { "$oid": "580100f4da893943d393e109" },
    "movie": { "$oid": "580100f4da893943d393e222" },
    "saved": false,
    "rating": 9
  },
  {
    "user": { "$oid": "580100f4da893943d393e109" },
    "movie": { "$oid": "580100f4da893943d393e223" },
    "saved": false,
    "rating": 8.5
  },
  {
    "user": { "$oid": "580100f4da893943d393e110" },
    "movie": { "$oid": "580100f4da893943d393e225" },
    "saved": false,
    "rating": 8
  },
  {
    "user": { "$oid": "580100f4da893943d393e110" },
    "movie": { "$oid": "580100f4da893943d393e227" },
    "saved": false,
    "rating": 7.5
  },
  {
    "user": { "$oid": "580100f4da893943d393e110" },
    "movie": { "$oid": "580100f4da893943d393e228" },
    "saved": false,
    "rating": 7
  },
  {
    "user": { "$oid": "580100f4da893943d393e110" },
    "movie": { "$oid": "580100f4da893943d393e229" },
    "saved": false,
    "rating": 7.5
  },
  {
    "user": { "$oid": "580100f4da893943d393e110" },
    "movie": { "$oid": "580100f4da893943d393e230" },
    "saved": false,
    "rating": 8
  },
  {
    "user": { "$oid": "580100f4da893943d393e110" },
    "movie": { "$oid": "580100f4da893943d393e231" },
    "saved": false,
    "rating": 8.5
  },
  {
    "user": { "$oid": "580100f4da893943d393e110" },
    "movie": { "$oid": "580100f4da893943d393e232" },
    "saved": false,
    "rating": 9
  },
  {
    "user": { "$oid": "580100f4da893943d393e110" },
    "movie": { "$oid": "580100f4da893943d393e233" },
    "saved": false,
    "rating": 9.5
  },
  {
    "user": { "$oid": "580100f4da893943d393e110" },
    "movie": { "$oid": "580100f4da893943d393e234" },
    "saved": false,
    "rating": 10
  },
  {
    "user": { "$oid": "580100f4da893943d393e110" },
    "movie": { "$oid": "580100f4da893943d393e235" },
    "saved": false,
    "rating": 9.5
  },
  {
    "user": { "$oid": "580100f4da893943d393e111" },
    "movie": { "$oid": "580100f4da893943d393e236" },
    "saved": false,
    "rating": 9
  },
  {
    "user": { "$oid": "580100f4da893943d393e111" },
    "movie": { "$oid": "580100f4da893943d393e237" },
    "saved": false,
    "rating": 8.5
  },
  {
    "user": { "$oid": "580100f4da893943d393e111" },
    "movie": { "$oid": "580100f4da893943d393e238" },
    "saved": false,
    "rating": 8
  },
  {
    "user": { "$oid": "580100f4da893943d393e111" },
    "movie": { "$oid": "580100f4da893943d393e241" },
    "saved": false,
    "rating": 7.5
  },
  {
    "user": { "$oid": "580100f4da893943d393e111" },
    "movie": { "$oid": "580100f4da893943d393e242" },
    "saved": false,
    "rating": 7
  },
  {
    "user": { "$oid": "580100f4da893943d393e111" },
    "movie": { "$oid": "580100f4da893943d393e243" },
    "saved": false,
    "rating": 7.5
  },
  {
    "user": { "$oid": "580100f4da893943d393e111" },
    "movie": { "$oid": "580100f4da893943d393e244" },
    "saved": false,
    "rating": 8
  },
  {
    "user": { "$oid": "580100f4da893943d393e111" },
    "movie": { "$oid": "580100f4da893943d393e245" },
    "saved": false,
    "rating": 8.5
  },
  {
    "user": { "$oid": "580100f4da893943d393e111" },
    "movie": { "$oid": "580100f4da893943d393e246" },
    "saved": false,
    "rating": 9
  },
  {
    "user": { "$oid": "580100f4da893943d393e111" },
    "movie": { "$oid": "580100f4da893943d393e247" },
    "saved": false,
    "rating": 9.5
  },
  {
    "user": { "$oid": "580100f4da893943d393e112" },
    "movie": { "$oid": "580100f4da893943d393e248" },
    "saved": false,
    "rating": 10
  },
  {
    "user": { "$oid": "580100f4da893943d393e112" },
    "movie": { "$oid": "580100f4da893943d393e249" },
    "saved": false,
    "rating": 9.5
  },
  {
    "user": { "$oid": "580100f4da893943d393e112" },
    "movie": { "$oid": "580100f4da893943d393e250" },
    "saved": false,
    "rating": 9
  },
  {
    "user": { "$oid": "580100f4da893943d393e112" },
    "movie": { "$oid": "580100f4da893943d393e251" },
    "saved": false,
    "rating": 8.5
  },
  {
    "user": { "$oid": "580100f4da893943d393e112" },
    "movie": { "$oid": "580100f4da893943d393e201" },
    "saved": false,
    "rating": 8
  },
  {
    "user": { "$oid": "580100f4da893943d393e112" },
    "movie": { "$oid": "580100f4da893943d393e202" },
    "saved": false,
    "rating": 7.5
  },
  {
    "user": { "$oid": "580100f4da893943d393e112" },
    "movie": { "$oid": "580100f4da893943d393e203" },
    "saved": false,
    "rating": 7
  },
  {
    "user": { "$oid": "580100f4da893943d393e112" },
    "movie": { "$oid": "580100f4da893943d393e204" },
    "saved": false,
    "rating": 7.5
  },
  {
    "user": { "$oid": "580100f4da893943d393e112" },
    "movie": { "$oid": "580100f4da893943d393e205" },
    "saved": false,
    "rating": 8
  },
  {
    "user": { "$oid": "580100f4da893943d393e112" },
    "movie": { "$oid": "580100f4da893943d393e206" },
    "saved": false,
    "rating": 8.5
  },
  {
    "user": { "$oid": "580100f4da893943d393e113" },
    "movie": { "$oid": "580100f4da893943d393e207" },
    "saved": false,
    "rating": 9
  },
  {
    "user": { "$oid": "580100f4da893943d393e113" },
    "movie": { "$oid": "580100f4da893943d393e208" },
    "saved": false,
    "rating": 9.5
  },
  {
    "user": { "$oid": "580100f4da893943d393e113" },
    "movie": { "$oid": "580100f4da893943d393e209" },
    "saved": false,
    "rating": 10
  },
  {
    "user": { "$oid": "580100f4da893943d393e113" },
    "movie": { "$oid": "580100f4da893943d393e210" },
    "saved": false,
    "rating": 9.5
  },
  {
    "user": { "$oid": "580100f4da893943d393e113" },
    "movie": { "$oid": "580100f4da893943d393e211" },
    "saved": false,
    "rating": 9
  },
  {
    "user": { "$oid": "580100f4da893943d393e113" },
    "movie": { "$oid": "580100f4da893943d393e212" },
    "saved": false,
    "rating": 8.5
  },
  {
    "user": { "$oid": "580100f4da893943d393e113" },
    "movie": { "$oid": "580100f4da893943d393e213" },
    "saved": false,
    "rating": 8
  },
  {
    "user": { "$oid": "580100f4da893943d393e113" },
    "movie": { "$oid": "580100f4da893943d393e214" },
    "saved": false,
    "rating": 7.5
  },
  {
    "user": { "$oid": "580100f4da893943d393e113" },
    "movie": { "$oid": "580100f4da893943d393e215" },
    "saved": false,
    "rating": 7
  },
  {
    "user": { "$oid": "580100f4da893943d393e113" },
    "movie": { "$oid": "580100f4da893943d393e216" },
    "saved": false,
    "rating": 7.5
  },
  {
    "user": { "$oid": "580100f4da893943d393e114" },
    "movie": { "$oid": "580100f4da893943d393e217" },
    "saved": false,
    "rating": 8
  },
  {
    "user": { "$oid": "580100f4da893943d393e114" },
    "movie": { "$oid": "580100f4da893943d393e218" },
    "saved": false,
    "rating": 8.5
  },
  {
    "user": { "$oid": "580100f4da893943d393e114" },
    "movie": { "$oid": "580100f4da893943d393e219" },
    "saved": false,
    "rating": 9
  },
  {
    "user": { "$oid": "580100f4da893943d393e114" },
    "movie": { "$oid": "580100f4da893943d393e220" },
    "saved": false,
    "rating": 9.5
  },
  {
    "user": { "$oid": "580100f4da893943d393e114" },
    "movie": { "$oid": "580100f4da893943d393e221" },
    "saved": false,
    "rating": 10
  },
  {
    "user": { "$oid": "580100f4da893943d393e114" },
    "movie": { "$oid": "580100f4da893943d393e222" },
    "saved": false,
    "rating": 9.5
  },
  {
    "user": { "$oid": "580100f4da893943d393e114" },
    "movie": { "$oid": "580100f4da893943d393e223" },
    "saved": false,
    "rating": 9
  },
  {
    "user": { "$oid": "580100f4da893943d393e114" },
    "movie": { "$oid": "580100f4da893943d393e225" },
    "saved": false,
    "rating": 8.5
  },
  {
    "user": { "$oid": "580100f4da893943d393e114" },
    "movie": { "$oid": "580100f4da893943d393e227" },
    "saved": false,
    "rating": 8
  },
  {
    "user": { "$oid": "580100f4da893943d393e114" },
    "movie": { "$oid": "580100f4da893943d393e228" },
    "saved": false,
    "rating": 7.5
  },
  {
    "user": { "$oid": "580100f4da893943d393e115" },
    "movie": { "$oid": "580100f4da893943d393e229" },
    "saved": false,
    "rating": 7
  },
  {
    "user": { "$oid": "580100f4da893943d393e115" },
    "movie": { "$oid": "580100f4da893943d393e230" },
    "saved": false,
    "rating": 7.5
  },
  {
    "user": { "$oid": "580100f4da893943d393e115" },
    "movie": { "$oid": "580100f4da893943d393e231" },
    "saved": false,
    "rating": 8
  },
  {
    "user": { "$oid": "580100f4da893943d393e115" },
    "movie": { "$oid": "580100f4da893943d393e232" },
    "saved": false,
    "rating": 8.5
  },
  {
    "user": { "$oid": "580100f4da893943d393e115" },
    "movie": { "$oid": "580100f4da893943d393e233" },
    "saved": false,
    "rating": 9
  },
  {
    "user": { "$oid": "580100f4da893943d393e115" },
    "movie": { "$oid": "580100f4da893943d393e234" },
    "saved": false,
    "rating": 9.5
  },
  {
    "user": { "$oid": "580100f4da893943d393e115" },
    "movie": { "$oid": "580100f4da893943d393e235" },
    "saved": false,
    "rating": 10
  },
  {
    "user": { "$oid": "580100f4da893943d393e115" },
    "movie": { "$oid": "580100f4da893943d393e236" },
    "saved": false,
    "rating": 9.5
  },
  {
    "user": { "$oid": "580100f4da893943d393e115" },
    "movie": { "$oid": "580100f4da893943d393e237" },
    "saved": false,
    "rating": 9
  },
  {
    "user": { "$oid": "580100f4da893943d393e115" },
    "movie": { "$oid": "580100f4da893943d393e238" },
    "saved": false,
    "rating": 8.5
  },
  {
    "user": { "$oid": "580100f4da893943d393e116" },
    "movie": { "$oid": "580100f4da893943d393e241" },
    "saved": false,
    "rating": 8
  },
  {
    "user": { "$oid": "580100f4da893943d393e116" },
    "movie": { "$oid": "580100f4da893943d393e242" },
    "saved": false,
    "rating": 7.5
  },
  {
    "user": { "$oid": "580100f4da893943d393e116" },
    "movie": { "$oid": "580100f4da893943d393e243" },
    "saved": false,
    "rating": 7
  },
  {
    "user": { "$oid": "580100f4da893943d393e116" },
    "movie": { "$oid": "580100f4da893943d393e244" },
    "saved": false,
    "rating": 7.5
  },
  {
    "user": { "$oid": "580100f4da893943d393e116" },
    "movie": { "$oid": "580100f4da893943d393e245" },
    "saved": false,
    "rating": 8
  },
  {
    "user": { "$oid": "580100f4da893943d393e116" },
    "movie": { "$oid": "580100f4da893943d393e246" },
    "saved": false,
    "rating": 8.5
  },
  {
    "user": { "$oid": "580100f4da893943d393e116" },
    "movie": { "$oid": "580100f4da893943d393e247" },
    "saved": false,
    "rating": 9
  },
  {
    "user": { "$oid": "580100f4da893943d393e116" },
    "movie": { "$oid": "580100f4da893943d393e248" },
    "saved": false,
    "rating": 9.5
  },
  {
    "user": { "$oid": "580100f4da893943d393e116" },
    "movie": { "$oid": "580100f4da893943d393e249" },
    "saved": false,
    "rating": 10
  },
  {
    "user": { "$oid": "580100f4da893943d393e116" },
    "movie": { "$oid": "580100f4da893943d393e250" },
    "saved": false,
    "rating": 9.5
  },
  {
    "user": { "$oid": "580100f4da893943d393e117" },
    "movie": { "$oid": "580100f4da893943d393e251" },
    "saved": false,
    "rating": 9
  },
  {
    "user": { "$oid": "580100f4da893943d393e117" },
    "movie": { "$oid": "580100f4da893943d393e201" },
    "saved": false,
    "rating": 8.5
  },
  {
    "user": { "$oid": "580100f4da893943d393e117" },
    "movie": { "$oid": "580100f4da893943d393e202" },
    "saved": false,
    "rating": 8
  },
  {
    "user": { "$oid": "580100f4da893943d393e117" },
    "movie": { "$oid": "580100f4da893943d393e203" },
    "saved": false,
    "rating": 7.5
  },
  {
    "user": { "$oid": "580100f4da893943d393e117" },
    "movie": { "$oid": "580100f4da893943d393e204" },
    "saved": false,
    "rating": 7
  },
  {
    "user": { "$oid": "580100f4da893943d393e117" },
    "movie": { "$oid": "580100f4da893943d393e205" },
    "saved": false,
    "rating": 7.5
  },
  {
    "user": { "$oid": "580100f4da893943d393e117" },
    "movie": { "$oid": "580100f4da893943d393e206" },
    "saved": false,
    "rating": 8
  },
  {
    "user": { "$oid": "580100f4da893943d393e117" },
    "movie": { "$oid": "580100f4da893943d393e207" },
    "saved": false,
    "rating": 8.5
  },
  {
    "user": { "$oid": "580100f4da893943d393e117" },
    "movie": { "$oid": "580100f4da893943d393e208" },
    "saved": false,
    "rating": 9
  },
  {
    "user": { "$oid": "580100f4da893943d393e117" },
    "movie": { "$oid": "580100f4da893943d393e209" },
    "saved": false,
    "rating": 9.5
  },
  {
    "user": { "$oid": "580100f4da893943d393e118" },
    "movie": { "$oid": "580100f4da893943d393e210" },
    "saved": false,
    "rating": 10
  },
  {
    "user": { "$oid": "580100f4da893943d393e118" },
    "movie": { "$oid": "580100f4da893943d393e211" },
    "saved": false,
    "rating": 9.5
  },
  {
    "user": { "$oid": "580100f4da893943d393e118" },
    "movie": { "$oid": "580100f4da893943d393e212" },
    "saved": false,
    "rating": 9
  },
  {
    "user": { "$oid": "580100f4da893943d393e118" },
    "movie": { "$oid": "580100f4da893943d393e213" },
    "saved": false,
    "rating": 8.5
  },
  {
    "user": { "$oid": "580100f4da893943d393e118" },
    "movie": { "$oid": "580100f4da893943d393e214" },
    "saved": false,
    "rating": 8
  },
  {
    "user": { "$oid": "580100f4da893943d393e118" },
    "movie": { "$oid": "580100f4da893943d393e215" },
    "saved": false,
    "rating": 7.5
  },
  {
    "user": { "$oid": "580100f4da893943d393e118" },
    "movie": { "$oid": "580100f4da893943d393e216" },
    "saved": false,
    "rating": 7
  },
  {
    "user": { "$oid": "580100f4da893943d393e118" },
    "movie": { "$oid": "580100f4da893943d393e217" },
    "saved": false,
    "rating": 7.5
  },
  {
    "user": { "$oid": "580100f4da893943d393e118" },
    "movie": { "$oid": "580100f4da893943d393e218" },
    "saved": false,
    "rating": 8
  },
  {
    "user": { "$oid": "580100f4da893943d393e118" },
    "movie": { "$oid": "580100f4da893943d393e219" },
    "saved": false,
    "rating": 8.5
  },
  {
    "user": { "$oid": "580100f4da893943d393e119" },
    "movie": { "$oid": "580100f4da893943d393e220" },
    "saved": false,
    "rating": 9
  },
  {
    "user": { "$oid": "580100f4da893943d393e119" },
    "movie": { "$oid": "580100f4da893943d393e221" },
    "saved": false,
    "rating": 9.5
  },
  {
    "user": { "$oid": "580100f4da893943d393e119" },
    "movie": { "$oid": "580100f4da893943d393e222" },
    "saved": false,
    "rating": 10
  },
  {
    "user": { "$oid": "580100f4da893943d393e119" },
    "movie": { "$oid": "580100f4da893943d393e223" },
    "saved": false,
    "rating": 9.5
  },
  {
    "user": { "$oid": "580100f4da893943d393e119" },
    "movie": { "$oid": "580100f4da893943d393e225" },
    "saved": false,
    "rating": 9
  },
  {
    "user": { "$oid": "580100f4da893943d393e119" },
    "movie": { "$oid": "580100f4da893943d393e227" },
    "saved": false,
    "rating": 8.5
  },
  {
    "user": { "$oid": "580100f4da893943d393e119" },
    "movie": { "$oid": "580100f4da893943d393e228" },
    "saved": false,
    "rating": 8
  },
  {
    "user": { "$oid": "580100f4da893943d393e119" },
    "movie": { "$oid": "580100f4da893943d393e229" },
    "saved": false,
    "rating": 7.5
  },
  {
    "user": { "$oid": "580100f4da893943d393e119" },
    "movie": { "$oid": "580100f4da893943d393e230" },
    "saved": false,
    "rating": 7
  },
  {
    "user": { "$oid": "580100f4da893943d393e119" },
    "movie": { "$oid": "580100f4da893943d393e231" },
    "saved": false,
    "rating": 7.5
  },
  {
    "user": { "$oid": "580100f4da893943d393e120" },
    "movie": { "$oid": "580100f4da893943d393e232" },
    "saved": false,
    "rating": 8
  },
  {
    "user": { "$oid": "580100f4da893943d393e120" },
    "movie": { "$oid": "580100f4da893943d393e233" },
    "saved": false,
    "rating": 8.5
  },
  {
    "user": { "$oid": "580100f4da893943d393e120" },
    "movie": { "$oid": "580100f4da893943d393e234" },
    "saved": false,
    "rating": 9
  },
  {
    "user": { "$oid": "580100f4da893943d393e120" },
    "movie": { "$oid": "580100f4da893943d393e235" },
    "saved": false,
    "rating": 9.5
  },
  {
    "user": { "$oid": "580100f4da893943d393e120" },
    "movie": { "$oid": "580100f4da893943d393e236" },
    "saved": false,
    "rating": 10
  },
  {
    "user": { "$oid": "580100f4da893943d393e120" },
    "movie": { "$oid": "580100f4da893943d393e237" },
    "saved": false,
    "rating": 9.5
  },
  {
    "user": { "$oid": "580100f4da893943d393e120" },
    "movie": { "$oid": "580100f4da893943d393e238" },
    "saved": false,
    "rating": 9
  },
  {
    "user": { "$oid": "580100f4da893943d393e120" },
    "movie": { "$oid": "580100f4da893943d393e241" },
    "saved": false,
    "rating": 8.5
  },
  {
    "user": { "$oid": "580100f4da893943d393e120" },
    "movie": { "$oid": "580100f4da893943d393e242" },
    "saved": false,
    "rating": 8
  },
  {
    "user": { "$oid": "580100f4da893943d393e120" },
    "movie": { "$oid": "580100f4da893943d393e243" },
    "saved": false,
    "rating": 7.5
  },
  {
    "user": { "$oid": "580100f4da893943d393e121" },
    "movie": { "$oid": "580100f4da893943d393e244" },
    "saved": false,
    "rating": 7
  },
  {
    "user": { "$oid": "580100f4da893943d393e121" },
    "movie": { "$oid": "580100f4da893943d393e245" },
    "saved": false,
    "rating": 7.5
  },
  {
    "user": { "$oid": "580100f4da893943d393e121" },
    "movie": { "$oid": "580100f4da893943d393e246" },
    "saved": false,
    "rating": 8
  },
  {
    "user": { "$oid": "580100f4da893943d393e121" },
    "movie": { "$oid": "580100f4da893943d393e247" },
    "saved": false,
    "rating": 8.5
  },
  {
    "user": { "$oid": "580100f4da893943d393e121" },
    "movie": { "$oid": "580100f4da893943d393e248" },
    "saved": false,
    "rating": 9
  },
  {
    "user": { "$oid": "580100f4da893943d393e121" },
    "movie": { "$oid": "580100f4da893943d393e249" },
    "saved": false,
    "rating": 9.5
  },
  {
    "user": { "$oid": "580100f4da893943d393e121" },
    "movie": { "$oid": "580100f4da893943d393e250" },
    "saved": false,
    "rating": 10
  },
  {
    "user": { "$oid": "580100f4da893943d393e121" },
    "movie": { "$oid": "580100f4da893943d393e251" },
    "saved": false,
    "rating": 9.5
  },
  {
    "user": { "$oid": "580100f4da893943d393e121" },
    "movie": { "$oid": "580100f4da893943d393e201" },
    "saved": false,
    "rating": 9
  },
  {
    "user": { "$oid": "580100f4da893943d393e121" },
    "movie": { "$oid": "580100f4da893943d393e202" },
    "saved": false,
    "rating": 8.5
  }
]
